{
  "links-produtos" : {
    
    "001" : {
    "nome" : "Preventi - Sapatos Castanhos",
    "preco_original" : "£ 80.00",
    "url" : "http://www.yoox.com/uk/44685969LN/item?dept=men#sts=sr_men80&cod10=44685969LN"
    },

    "002" : {
    "nome" : "Galveias, José Luís Peixoto - WOOK",
    "preco_original" : "15,93€",
    "url" : "http://www.wook.pt/ficha/galveias/a/id/15826242"
    },

    "003" : {
    "nome" : "Levis 511 - As calcas mais top",
    "preco_original" : "£80.00",
    "url" : "http://www.usc.co.uk/levis-511-explorer-mens-jeans-642270?colcode=64227077"
    },

    "004" : {
    "nome" : "Maquina encoordoar",
    "preco_original" : "£219.95",
    "url" : "http://www.racquetdepot.co.uk/pros-pro-challenger-i-stringing-machine/"
    },

    "005" : {
    "nome" : "Luz vermelha Moon",
    "preco_original" : "£21.90",
    "url" : "http://www.amazon.co.uk/Moon-Comet-Rear-Light-Black/dp/B009OBXXF0/ref=sr_1_3?s=sports&ie=UTF8&qid=1414523323&sr=1-3&keywords=moon+light"
    },

    "006" : {
    "nome" : "ASOS - Camisa Azul",
    "preco_original" : "£20.00",
    "url" : "http://www.asos.com/asos/asos-twill-shirt-in-long-sleeve/prod/pgeproduct.aspx?iid=2918492&clr=Navy&SearchQuery=ASOS+Twill+Shirt+In+Long+Sleeve&pgesize=20&pge=1&totalstyles=20&gridsize=3&gridrow=2&gridcolumn=3"
    },

    "007" : {
    "nome" : "United Colors of Benetton - Casaco",
    "preco_original" : "£95.00",
    "url" : "http://www.asos.com/pgeproduct.aspx?iid=4620280&CTARef=Basket+Page"
    }
   }
      
}